1,1,4500,Fri Nov 06 01:00:00 CST 2020,Tokio Haneda,Fri Nov 06 02:00:00 CST 2020,Doha Hamad,1:0,AVQA01,6082455,6523140
2,1,634586,Sun Nov 01 01:00:00 CST 2020,Tokio Haneda,Thu Nov 05 00:00:00 CST 2020,Juan Santamaría,95:0,AVQA01,6082455,6523140
3,7,4500,Fri Nov 06 01:00:00 CST 2020,Tokio Haneda,Fri Nov 06 02:00:00 CST 2020,Doha Hamad,1:0,AVAA02,6254855,5947845
4,1,400,Fri Dec 04 01:00:00 CST 2020,Doha Hamad,Sat Dec 05 02:00:00 CST 2020,Juan Santamaría,25:0,AVQA01,6082455,6523140
5,2,450,Fri Dec 04 01:00:00 CST 2020,Santos Dumont Regional Airport,Sat Dec 05 02:00:00 CST 2020,Juan Santamaría,25:0,AVEM02,2360048,6598821
