AVLC01,10,200,1
AVLC02,10,150,0
AVMX01,9,175,0
AVMX02,9,180,1
AVCA01,8,200,1
AVCA02,8,200,1
AVAA01,7,150,1
AVAA02,7,170,1
AVAV01,6,210,1
AVAV01,6,200,0
AVUA01,5,300,1
AVUA02,5,250,1
AVIB01,4,180,0
AVIB02,4,160,1
AVBA01,3,190,1
AVBA,3,150,1
AVEM02,2,175,1
AVEM,2,175,0
AVQA01,1,185,1
AVQA02,1,170,0